{
    "gitbook": "3.x.x",
    "links": {
        "sidebar": {
            "Contact / Support": "mailto:dmc-support@cern.ch"
        }
    },
    "title": "Data Management Clients Documentation",
    "language": "en",
    "plugins": ["anchorjs"]
}
